^C:\USERS\NEETH\ONEDRIVE\DESKTOP\AGCP3\WINSOCK CLIENT\DEBUG\STDAFX.OBJ|C:\USERS\NEETH\ONEDRIVE\DESKTOP\AGCP3\WINSOCK CLIENT\DEBUG\WINSOCK CLIENT.OBJ
/OUT:"C:\USERS\NEETH\ONEDRIVE\DESKTOP\AGCP3\DEBUG\WINSOCK CLIENT.EXE" /INCREMENTAL /NOLOGO KERNEL32.LIB USER32.LIB GDI32.LIB WINSPOOL.LIB COMDLG32.LIB ADVAPI32.LIB SHELL32.LIB OLE32.LIB OLEAUT32.LIB UUID.LIB ODBC32.LIB ODBCCP32.LIB /MANIFEST /MANIFESTUAC:"level='asInvoker' uiAccess='false'" /manifest:embed /DEBUG /PDB:"C:\USERS\NEETH\ONEDRIVE\DESKTOP\AGCP3\DEBUG\WINSOCK CLIENT.PDB" /SUBSYSTEM:CONSOLE /TLBID:1 /DYNAMICBASE /NXCOMPAT /IMPLIB:"C:\USERS\NEETH\ONEDRIVE\DESKTOP\AGCP3\DEBUG\WINSOCK CLIENT.LIB" /MACHINE:X86 /SAFESEH /FS DEBUG\STDAFX.OBJ
"DEBUG\WINSOCK CLIENT.OBJ"
